20240122,501,504,0557744,00202390498,BHBTG1,903193,99,     ,20230901,西口　勝　　　　　　　　　　　　　　　　　　　　　　,ﾆｼｸﾞﾁ ﾏｻﾙ                                          ,19600730,1,11102022,2-120-1ﾊﾟｰｸﾊｲﾂ302                       ,JPY,00000,00004000000,00000000000,0000000000000,000000000000000,000000000000000,さいたま市　　　　　,北区　　　　　　　　　　　　　,宮原町　　　　　　　　　　　　　　　　　　　　　　 
20240122,501,504,0557827,00202392296,BHBTG1,903613,99,     ,20230902,前田　市郎　　　　　　　　　　　　　　　　　　　　　,ﾏｴﾀﾞ ｲﾁﾛｳ                                          ,19561202,1,19202005,                                        ,JPY,00000,00003000000,00000000000,0000000000000,000000000000000,000000000000000,山梨県　　　　　　　,富士吉田市　　　　　　　　　　,下吉田２－２５－２４　　　　　　　　　　　　　　　 
20240122,501,504,0557855,00202392429,BHBTG1,910440,99,     ,20230902,二見　晃平　　　　　　　　　　　　　　　　　　　　　,ﾌﾀﾐ ｺｳﾍｲ                                           ,19901218,1,22210061,63ﾊﾞﾝﾁ                                  ,JPY,00000,00005000000,00000000000,0000000000000,000000000000000,000000000000000,静岡県　　　　　　　,富士市　　　　　　　　　　　　,西柏原新田　　　　　　　　　　　　　　　　　　　　 
20240122,501,504,0557856,00202392460,BHBTG1,910440,99,     ,20230902,二見　晃平　　　　　　　　　　　　　　　　　　　　　,ﾌﾀﾐ ｺｳﾍｲ                                           ,19901218,1,22210061,63ﾊﾞﾝﾁ                                  ,JPY,00000,00005000000,00000000000,0000000000000,000000000000000,000000000000000,静岡県　　　　　　　,富士市　　　　　　　　　　　　,西柏原新田　　　　　　　　　　　　　　　　　　　　 
20240122,501,504,0557864,00202392601,BHBTG1,911474,99,     ,20230902,望月　麻依加　　　　　　　　　　　　　　　　　　　　,ﾓﾁﾂﾞｷ ﾏｲｶ                                          ,19910120,2,11242032,1-18-12                                 ,JPY,00000,00003000000,00000000000,0000000000000,000000000000000,000000000000000,埼玉県　　　　　　　,日高市　　　　　　　　　　　　,武蔵台　　　　　　　　　　　　　　　　　　　　　　 
20240122,501,504,0557901,00202394771,BHBWD1,903319,99,     ,20230904,乗松　巧士郎　　　　　　　　　　　　　　　　　　　　,ﾉﾘﾏﾂ ｺｳｼﾛｳ                                         ,20000804,1,13111255,26-18                                   ,JPY,00000,00020000000,00000000000,0000000000000,000000000000000,000000000000000,東京都　　　　　　　,大田区　　　　　　　　　　　　,池上１丁目　　　　　　　　　　　　　　　　　　　　 
20240122,501,504,0557902,00202394797,BHBTG1,903319,99,     ,20230904,乗松　巧士郎　　　　　　　　　　　　　　　　　　　　,ﾉﾘﾏﾂ ｺｳｼﾛｳ                                         ,20000804,1,13111255,26-18                                   ,JPY,00000,00020000000,00000000000,0000000000000,000000000000000,000000000000000,東京都　　　　　　　,大田区　　　　　　　　　　　　,池上１丁目　　　　　　　　　　　　　　　　　　　　 
20240122,501,504,0557988,00202396545,BHBTG1,920857,99,     ,20230906,土屋　勝己　　　　　　　　　　　　　　　　　　　　　,ﾂﾁﾔ ｶﾂﾐ                                            ,19730718,1,34107018,6-35-30-6                               ,JPY,00000,00003000000,00000000000,0000000000000,000000000000000,000000000000000,広島市　　　　　　　,安芸区　　　　　　　　　　　　,中野東　　　　　　　　　　　　　　　　　　　　　　 
20240122,501,504,0558264,00202401790,BHBTG1,889843,99,     ,20230910,佐藤　悦子　　　　　　　　　　　　　　　　　　　　　,ｻﾄｳ ｴﾂｺ                                            ,19870529,2,11221033,625-1                                   ,JPY,00000,00004050000,00000000000,0000000000000,000000000000000,000000000000000,埼玉県　　　　　　　,草加市　　　　　　　　　　　　,苗塚町　　　　　　　　　　　　　　　　　　　　　　 
20240122,501,504,0558484,00202393831,BHBTG1,885518,99,     ,20230906,齋藤　みどり　　　　　　　　　　　　　　　　　　　　,ｻｲﾄｳ ﾐﾄﾞﾘ                                          ,19690108,2,20203143,                                        ,JPY,00000,00003000000,00000000000,0000000000000,000000000000000,000000000000000,長野県　　　　　　　,上田市　　　　　　　　　　　　,上田１９４７－３　　　　　　　　　　　　　　　　　 
20240122,501,504,0558495,00202404992,BHBTG1,881109,99,     ,20230913,小岩井　浩　　　　　　　　　　　　　　　　　　　　　,ｺｲﾜｲ ﾋﾛｼ                                           ,19700622,1,08222014,2333-81                                 ,JPY,00000,00010000000,00000000000,0000000000000,000000000000000,000000000000000,茨城県　　　　　　　,鹿嶋市　　　　　　　　　　　　,宮中　　　　　　　　　　　　　　　　　　　　　　　 
20240122,501,504,0558525,00202405726,BHBTG1,920905,99,     ,20230913,兼田　卓司　　　　　　　　　　　　　　　　　　　　　,ｶﾈﾀﾞ ﾀｸｼ                                           ,19560605,1,28111231,1-2-1304                                ,JPY,00000,00005000000,00000000000,0000000000000,000000000000000,000000000000000,神戸市　　　　　　　,西区　　　　　　　　　　　　　,井吹台東町２丁目　　　　　　　　　　　　　　　　　 
20240122,501,504,0558656,00202407748,BHBTG1,920739,99,     ,20230915,石川　彰子　　　　　　　　　　　　　　　　　　　　　,ｲｼｶﾜ ｱｷｺ                                           ,19561202,2,22210076,291                                     ,JPY,00000,00002900000,00000000000,0000000000000,000000000000000,000000000000000,静岡県　　　　　　　,富士市　　　　　　　　　　　　,三ツ沢　　　　　　　　　　　　　　　　　　　　　　 
20240122,501,504,0558662,00202407904,BHBTG1,911474,99,     ,20230915,柴田　佳子　　　　　　　　　　　　　　　　　　　　　,ｼﾊﾞﾀ ﾖｼｺ                                           ,19650220,2,13109169,9-14                                    ,JPY,00000,00005000000,00000000000,0000000000000,000000000000000,000000000000000,東京都　　　　　　　,品川区　　　　　　　　　　　　,戸越６丁目　　　　　　　　　　　　　　　　　　　　 
20240122,501,504,0558666,00202407938,BHBTG1,911474,99,     ,20230915,柴田　佳子　　　　　　　　　　　　　　　　　　　　　,ｼﾊﾞﾀ ﾖｼｺ                                           ,19650220,2,13109169,9-14                                    ,JPY,00000,00005000000,00000000000,0000000000000,000000000000000,000000000000000,東京都　　　　　　　,品川区　　　　　　　　　　　　,戸越６丁目　　　　　　　　　　　　　　　　　　　　 
20240122,501,504,0558672,00202408274,BHBTG1,906305,99,     ,20230915,安藤　敦子　　　　　　　　　　　　　　　　　　　　　,ｱﾝﾄﾞｳ ｱﾂｺ                                          ,19730426,2,14201070,1-33-6                                  ,JPY,00000,00003000000,00000000000,0000000000000,000000000000000,000000000000000,神奈川県　　　　　　,横須賀市　　　　　　　　　　　,鴨居　　　　　　　　　　　　　　　　　　　　　　　 
20240122,501,504,0558738,00202409488,BHBTG1,889889,99,     ,20230918,山田　彩水　　　　　　　　　　　　　　　　　　　　　,ﾔﾏﾀﾞ ｱﾔﾐ                                           ,19921021,2,20220012,700                                     ,JPY,00000,00002000000,00000000000,0000000000000,000000000000000,000000000000000,長野県　　　　　　　,安曇野市　　　　　　　　　　　,穂高　　　　　　　　　　　　　　　　　　　　　　　 
20240122,501,504,0558756,00202410049,BHBTG1,910584,99,     ,20230918,須田　尚子　　　　　　　　　　　　　　　　　　　　　,ｽﾀﾞ ﾅｵｺ                                            ,19820627,2,28111213,28-28                                   ,JPY,00000,00003000000,00000000000,0000000000000,000000000000000,000000000000000,神戸市　　　　　　　,西区　　　　　　　　　　　　　,樫野台２丁目　　　　　　　　　　　　　　　　　　　 
20240122,501,504,0558814,00202410577,BHBTG1,911221,99,     ,20230917,田中　由美子　　　　　　　　　　　　　　　　　　　　,ﾀﾅｶ ﾕﾐｺ                                            ,19670502,2,33101208,1-36-19 ｱｻﾋﾌﾟﾗｻﾞ301                     ,JPY,00000,00010000000,00000000000,0000000000000,000000000000000,000000000000000,岡山市　　　　　　　,北区　　　　　　　　　　　　　,西古松　　　　　　　　　　　　　　　　　　　　　　 
20240122,501,504,0558871,00202408753,BHBTG1,881429,99,     ,20230916,朝倉　真理　　　　　　　　　　　　　　　　　　　　　,ｱｻｸﾗ ﾏﾘ                                            ,19720525,2,20207100,2-10-5-3                                ,JPY,00000,00003000000,00000000000,0000000000000,000000000000000,000000000000000,長野県　　　　　　　,須坂市　　　　　　　　　　　　,墨坂南　　　　　　　　　　　　　　　　　　　　　　 
20240122,501,504,0558877,00202409090,BHBTG1,881429,99,     ,20230916,朝倉　真理　　　　　　　　　　　　　　　　　　　　　,ｱｻｸﾗ ﾏﾘ                                            ,19720525,2,20207100,2-10-5-3                                ,JPY,00000,00003000000,00000000000,0000000000000,000000000000000,000000000000000,長野県　　　　　　　,須坂市　　　　　　　　　　　　,墨坂南　　　　　　　　　　　　　　　　　　　　　　 
20240122,501,504,0558947,00202413951,BHBTG1,920739,99,     ,20230919,石川　彰子　　　　　　　　　　　　　　　　　　　　　,ｲｼｶﾜ ｱｷｺ                                           ,19561202,2,22210076,291                                     ,JPY,00000,00003000000,00000000000,0000000000000,000000000000000,000000000000000,静岡県　　　　　　　,富士市　　　　　　　　　　　　,三ツ沢　　　　　　　　　　　　　　　　　　　　　　 
20240122,501,504,0559165,00202418067,BHBTG1,915245,99,     ,20230922,中上　瑛莉香　　　　　　　　　　　　　　　　　　　　,ﾅｶｶﾞﾐ ｴﾘｶ                                          ,19951114,2,27103093,11ｰ9 ｱｽﾄﾚｱ405                           ,JPY,00000,00003000000,00000000000,0000000000000,000000000000000,000000000000000,大阪市　　　　　　　,福島区　　　　　　　　　　　　,鷺洲５丁目
20240122,501,504,0559207,00202420063,BHBTG1,912580,99,     ,20230923,森田　恭子　　　　　　　　　　　　　　　　　　　　　,ﾓﾘﾀ ﾔｽｺ                                            ,19880911,2,40343023,3-16-20                                 ,JPY,00000,00010000000,00000000000,0000000000000,000000000000000,000000000000000,福岡県　　　　　　　,糟屋郡志免町　　　　　　　　　,片峰中央　　　　　　　　　　　　　　　　　　　　　 
20240122,501,504,0559218,00202420337,BHBTG1,910440,99,     ,20230923,二見　素史　　　　　　　　　　　　　　　　　　　　　,ﾌﾀﾐ ﾓﾄﾌﾐ                                           ,19541208,1,22210061,63ﾊﾞﾝﾁ                                  ,JPY,00000,00005000000,00000000000,0000000000000,000000000000000,000000000000000,静岡県　　　　　　　,富士市　　　　　　　　　　　　,西柏原新田　　　　　　　　　　　　　　　　　　　　 
20240122,501,504,0559264,00202421517,BHBWD1,909351,99,     ,20230925,鈴木　俊介　　　　　　　　　　　　　　　　　　　　　,ｽｽﾞｷ ｼｭﾝｽｹ                                         ,19701014,1,14110065,35-19                                   ,JPY,00000,00003000000,00000000000,0000000000000,000000000000000,000000000000000,横浜市　　　　　　　,戸塚区　　　　　　　　　　　　,平戸３丁目　　　　　　　　　　　　　　　　　　　　 
20240122,501,504,0559272,00202421855,BHBTG1,881139,99,     ,20230925,嶋橋　伸介　　　　　　　　　　　　　　　　　　　　　,ｼﾏﾊｼ ｼﾝｽｹ                                          ,19670717,1,14118064,34-17 ｴｽﾎﾟﾜｰﾙｾﾝﾀｰｷﾀ501                  ,JPY,00000,00005000000,00000000000,0000000000000,000000000000000,000000000000000,横浜市　　　　　　　,都筑区　　　　　　　　　　　　,中川中央１丁目　　　　　　　　　　　　　　　　　　 
20240122,501,504,0559351,00202416368,BHBWD1,885518,99,     ,20230923,小林　奈美　　　　　　　　　　　　　　　　　　　　　,ｺﾊﾞﾔｼ ﾅﾐ                                           ,19721230,2,20212003,317                                     ,JPY,00000,00002000000,00000000000,0000000000000,000000000000000,000000000000000,長野県　　　　　　　,大町市　　　　　　　　　　　　,常盤　　　　　　　　　　　　　　　　　　　　　　　 
20240122,501,504,0559356,00202417754,BHBTG1,912580,99,     ,20230923,森田　恭子　　　　　　　　　　　　　　　　　　　　　,ﾓﾘﾀ ﾔｽｺ                                            ,19880911,2,40343023,3-16-20                                 ,JPY,00000,00010000000,00000000000,0000000000000,000000000000000,000000000000000,福岡県　　　　　　　,糟屋郡志免町　　　　　　　　　,片峰中央　　　　　　　　　　　　　　　　　　　　　 
20240122,501,504,0559678,00202405619,BHBTG1,911015,99,     ,20230916,小野田　宗弘　　　　　　　　　　　　　　　　　　　　,ｵﾉﾀﾞ ﾑﾈﾋﾛ                                          ,19690601,1,22134028,                                        ,JPY,00000,00005000000,00000000000,0000000000000,000000000000000,000000000000000,浜松市　　　　　　　,南区　　　　　　　　　　　　　,高塚町４７１２－６　　　　　　　　　　　　　　　　 
20240122,501,504,0559740,00202426805,BHBTG1,885518,99,     ,20230928,山崎　瑠美子　　　　　　　　　　　　　　　　　　　　,ﾔﾏｻﾞｷ ﾙﾐｺ                                          ,19790220,2,20202170,5768-6                                  ,JPY,00000,00003100000,00000000000,0000000000000,000000000000000,000000000000000,長野県　　　　　　　,松本市　　　　　　　　　　　　,神林　　　　　　　　　　　　　　　　　　　　　　　 
20240122,501,504,0559862,00202414793,BHBTG1,884386,99,     ,20230920,古川　直樹　　　　　　　　　　　　　　　　　　　　　,ﾌﾙｶﾜ ﾅｵｷ                                           ,19850810,1,27203058,                                        ,JPY,00000,00003000000,00000000000,0000000000000,000000000000000,000000000000000,大阪府　　　　　　　,豊中市　　　　　　　　　　　　,寺内１－６－８－２０７　　　　　　　　　　　　　　 
20240122,501,504,0559936,00202407359,BHBTG1,886515,99,     ,20230921,比嘉　景子　　　　　　　　　　　　　　　　　　　　　,ﾋｶﾞ ｹｲｺ                                            ,19780809,2,28109136,13-1 ﾗｲｵﾝｽﾞﾏﾝｼｮﾝｷﾀｽｽﾞﾗﾝﾀﾞｲB609          ,JPY,00000,00010000000,00000000000,0000000000000,000000000000000,000000000000000,神戸市　　　　　　　,北区　　　　　　　　　　　　　,甲栄台１丁目　　　　　　　　　　　　　　　　　　　 
20240122,501,504,0559937,00202428512,BHBTG1,903313,99,     ,20231001,三上　はるみ　　　　　　　　　　　　　　　　　　　　,ﾐｶﾐ ﾊﾙﾐ                                            ,19600909,2,13112144,36-3 ﾆｭｰｿﾌｨｽﾘｰｶﾐｷﾀｻﾞﾜ103                ,JPY,00000,00005000000,00000000000,0000000000000,000000000000000,000000000000000,東京都　　　　　　　,世田谷区　　　　　　　　　　　,上北沢５丁目　　　　　　　　　　　　　　　　　　　 
20240122,501,504,0559952,00202430583,BHBTG1,903780,99,     ,20231002,小松　涼子　　　　　　　　　　　　　　　　　　　　　,ｺﾏﾂ ﾘｮｳｺ                                           ,19810727,2,13112250,2-6-9 ｺﾝｾｰﾙﾄﾄﾞﾛｷ103                     ,JPY,00000,00005000000,00000000000,0000000000000,000000000000000,000000000000000,東京都　　　　　　　,世田谷区　　　　　　　　　　　,等々力２丁目　　　　　　　　　　　　　　　　　　　 
20240122,501,504,0559997,00202423976,BHBTG1,886391,99,     ,20230928,坂井　栄子　　　　　　　　　　　　　　　　　　　　　,ｻｶｲ ｴｲｺ                                            ,19760519,2,08201154,                                        ,JPY,00000,00005000000,00000000000,0000000000000,000000000000000,000000000000000,茨城県　　　　　　　,水戸市　　　　　　　　　　　　,笠原町１５８６－１　　　　　　　　　　　　　　　　 
20240122,501,504,0559999,00202423950,BHBTG1,886391,99,     ,20230928,坂井　栄子　　　　　　　　　　　　　　　　　　　　　,ｻｶｲ ｴｲｺ                                            ,19760519,2,08201154,                                        ,JPY,00000,00005000000,00000000000,0000000000000,000000000000000,000000000000000,茨城県　　　　　　　,水戸市　　　　　　　　　　　　,笠原町１５８６－１　　　　　　　　　　　　　　　　 
20240122,501,504,0560002,00202423901,BHBTG1,886391,99,     ,20230928,坂井　栄子　　　　　　　　　　　　　　　　　　　　　,ｻｶｲ ｴｲｺ                                            ,19760519,2,08201154,                                        ,JPY,00000,00005000000,00000000000,0000000000000,000000000000000,000000000000000,茨城県　　　　　　　,水戸市　　　　　　　　　　　　,笠原町１５８６－１　　　　　　　　　　　　　　　　 
20240122,501,504,0560046,00202432563,BHBTG1,921149,99,     ,20231004,水越　真見子　　　　　　　　　　　　　　　　　　　　,ﾐｽﾞｺｼ ﾏﾐｺ                                          ,19891210,2,13214001,3-8-20 ﾋﾐｺﾏﾝｼｮﾝ405                      ,JPY,00000,00003000000,00000000000,0000000000000,000000000000000,000000000000000,東京都　　　　　　　,国分寺市　　　　　　　　　　　,南町　　　　　　　　　　　　　　　　　　　　　　　 
20240122,501,504,0560053,00202419941,BHBTG1,910347,99,     ,20230924,秋山　裕司　　　　　　　　　　　　　　　　　　　　　,ｱｷﾔﾏ ﾕｳｼﾞ                                          ,19811113,1,11101035,3-43-17                                 ,JPY,00000,00003000000,00000000000,0000000000000,000000000000000,000000000000000,さいたま市　　　　　,西区　　　　　　　　　　　　　,西大宮　　　　　　　　　　　　　　　　　　　　　　 
20240122,501,504,0560054,00202431748,BHBTG1,910563,99,     ,20231004,本間　淳　　　　　　　　　　　　　　　　　　　　　　,ﾎﾝﾏ ｼﾞｭﾝ                                           ,19630429,1,17201994,ｻｰﾊﾟｽﾄｶﾞｼﾀﾞｲ2 305                       ,JPY,00000,00003010000,00000000000,0000000000000,000000000000000,000000000000000,石川県　　　　　　　,金沢市　　　　　　　　　　　　,富樫３－３－１６　　　　　　　　　　　　　　　　　 
20240122,501,504,0560164,00202431466,BHBTG1,912535,99,     ,20231006,山野　和美　　　　　　　　　　　　　　　　　　　　　,ﾔﾏﾉ ｶｽﾞﾐ                                           ,19660204,2,27208029,1131                                    ,JPY,00000,00010000000,00000000000,0000000000000,000000000000000,000000000000000,大阪府　　　　　　　,貝塚市　　　　　　　　　　　　,三ツ松