{
  "elderlyCheckResponse": {
    "applicationNumber": "123456",
    "annualIncome": 10000,
    "financialAssets": 100000,
    "totalAnnualPremium": 1000,
    "estimatedTotalPremium": 500,
    "policyCountForOneYear": 10,
    "policyCountForTwoYear": 10,
    "policyCountForLevelPayment": 10,
    "excessPolicyCountForOneYear": 10,
    "excessPolicyCountForTwoYear": 10,
    "excessPolicyCountForLevelPayment": 10,
    "checkResult": [
      {
        "resultCode": 101,
        "errorMessage": "All goood"
      },
      {
        "resultCode": 102,
        "errorMessage": "All the best"
      },
      {
        "resultCode": 103,
        "errorMessage": "All is well"
      }
    ],
    "systemErrorCode": 1101,
    "systemErrorMessage": "History Check Response returned"
  }
}